…
litters_data = read_csv("./data/FAS_litters.csv",
  col_types = "ccddiiii")
litters_data = janitor::clean_names(litters_data)

pups_data = read_csv("./data/FAS_pups.csv",
  col_types = "ciiiii")
pups_data = janitor::clean_names(pups_data)
```

``` r
select(litters_data, group, litter_number, gd0_weight, pups_born_alive)
```

    ## # A tibble: 49 x 4
    ##   group litter_number gd0_weight pups_born_alive
    ##   <chr> <chr>              <dbl>           <int>
    ## 1 Con7  #85                 19.7               3
    ## 2 Con7  #1/2/95/2           27                 8
    ## 3 Con7  #5/5/3/83/3-3       26                 6
    ## # ... with 46 more rows

``` r
select(litters_data, group:gd_of_birth)
```

    ## # A tibble: 49 x 5
    ##   group litter_number gd0_weight gd18_weight gd_of_birth
    ##   <chr> <chr>              <dbl>       <dbl>       <int>
    ## 1 Con7  #85                 19.7        34.7          20
    ## 2 Con7  #1/2/95/2           27          42            19
    ## 3 Con7  #5/5/3/83/3-3       26          41.4          19
    ## # ... with 46 more rows

``` r
select(litters_data, -pups_survive)
```

    ## # A tibble: 49 x 7
    ##   group litter_number gd0_weight gd18_weight gd_of_birth pups_born_alive
    ##   <chr> <chr>              <dbl>       <dbl>       <int>           <int>
    ## 1 Con7  #85                 19.7        34.7          20               3
    ## 2 Con7  #1/2/95/2           27          42            19               8
    ## 3 Con7  #5/5/3/83/3-3       26          41.4          19               6
    ## # ... with 46 more rows, and 1 more variable: pups_dead_birth <int>

``` r
select(litters_data, GROUP = group, LiTtEr_NuMbEr = litter_number)
```

    ## # A tibble: 49 x 2
    ##   GROUP LiTtEr_NuMbEr
    ##   <chr> <chr>        
    ## 1 Con7  #85          
    ## 2 Con7  #1/2/95/2    
    ## 3 Con7  #5/5/3/83/3-3
    ## # ... with 46 more rows

``` r
rename(litters_data, GROUP = group, LiTtEr_NuMbEr = litter_number)
```

    ## # A tibble: 49 x 8
    ##   GROUP LiTtEr_NuMbEr gd0_weight gd18_weight gd_of_birth pups_born_alive
    ##   <chr> <chr>              <dbl>       <dbl>       <int>           <int>
    ## 1 Con7  #85                 19.7        34.7          20               3
    ## 2 Con7  #1/2/95/2           27          42            19               8
    ## 3 Con7  #5/5/3/83/3-3       26          41.4          19               6
    ## # ... with 46 more rows, and 2 more variables: pups_dead_birth <int>,
    ## #   pups_survive <int>

``` r
select(litters_data, starts_with("gd"))
```

    ## # A tibble: 49 x 3
    ##   gd0_weight gd18_weight gd_of_birth
    ##        <dbl>       <dbl>       <int>
    ## 1       19.7        34.7          20
    ## 2       27          42            19
    ## 3       26          41.4          19
    ## # ... with 46 more rows

``` r
select(litters_data, litter_number, everything())
```

    ## # A tibble: 49 x 8
    ##   litter_number group gd0_weight gd18_weight gd_of_birth pups_born_alive
    ##   <chr>         <chr>      <dbl>       <dbl>       <int>           <int>
    ## 1 #85           Con7        19.7        34.7          20               3
    ## 2 #1/2/95/2     Con7        27          42            19               8
    ## 3 #5/5/3/83/3-3 Con7        26          41.4          19               6
    ## # ... with 46 more rows, and 2 more variables: pups_dead_birth <int>,
    ## #   pups_survive <int>

``` r
select(pups_data, litter_number, sex, pd_ears)
```

    ## # A tibble: 313 x 3
    ##   litter_number   sex pd_ears
    ##   <chr>         <int>   <int>
    ## 1 #85               1       4
    ## 2 #85               1       4
    ## 3 #1/2/95/2         1       5
    ## # ... with 310 more rows
…
``` r
filter(litters_data, pups_born_alive == 0)
```

    ## # A tibble: 0 x 8
    ## # ... with 8 variables: group <chr>, litter_number <chr>,
    ## #   gd0_weight <dbl>, gd18_weight <dbl>, gd_of_birth <int>,
    ## #   pups_born_alive <int>, pups_dead_birth <int>, pups_survive <int>

``` r
filter(litters_data, !is.na(gd0_weight))
```

    ## # A tibble: 34 x 8
    ##   group litter_number gd0_weight gd18_weight gd_of_birth pups_born_alive
    ##   <chr> <chr>              <dbl>       <dbl>       <int>           <int>
    ## 1 Con7  #85                 19.7        34.7          20               3
    ## 2 Con7  #1/2/95/2           27          42            19               8
    ## 3 Con7  #5/5/3/83/3-3       26          41.4          19               6
    ## # ... with 31 more rows, and 2 more variables: pups_dead_birth <int>,
    ## #   pups_survive <int>
…
``` r
mutate(litters_data,
  wt_gain = gd18_weight - gd0_weight,
  group = tolower(group)
)
```

    ## # A tibble: 49 x 9
    ##   group litter_number gd0_weight gd18_weight gd_of_birth pups_born_alive
    ##   <chr> <chr>              <dbl>       <dbl>       <int>           <int>
    ## 1 con7  #85                 19.7        34.7          20               3
    ## 2 con7  #1/2/95/2           27          42            19               8
    ## 3 con7  #5/5/3/83/3-3       26          41.4          19               6
    ## # ... with 46 more rows, and 3 more variables: pups_dead_birth <int>,
    ## #   pups_survive <int>, wt_gain <dbl>

``` r
mutate(litters_data,
  wt_gain = gd18_weight - gd0_weight,
  wt_gain_squared = wt_gain^2
)
```

    ## # A tibble: 49 x 10
    ##   group litter_number gd0_weight gd18_weight gd_of_birth pups_born_alive
    ##   <chr> <chr>              <dbl>       <dbl>       <int>           <int>
    ## 1 Con7  #85                 19.7        34.7          20               3
    ## 2 Con7  #1/2/95/2           27          42            19               8
    ## 3 Con7  #5/5/3/83/3-3       26          41.4          19               6
    ## # ... with 46 more rows, and 4 more variables: pups_dead_birth <int>,
    ## #   pups_survive <int>, wt_gain <dbl>, wt_gain_squared <dbl>

``` r
arrange(litters_data, gd0_weight)
```

    ## # A tibble: 49 x 8
    ##   group litter_number gd0_weight gd18_weight gd_of_birth pups_born_alive
    ##   <chr> <chr>              <dbl>       <dbl>       <int>           <int>
    ## 1 Mod7  #59                 17          33.4          19               8
    ## 2 Mod7  #62                 19.5        35.9          19               7
    ## 3 Con7  #85                 19.7        34.7          20               3
    ## # ... with 46 more rows, and 2 more variables: pups_dead_birth <int>,
    ## #   pups_survive <int>

``` r
arrange(litters_data, desc(pups_born_alive), gd0_weight)
```

    ## # A tibble: 49 x 8
    ##   group litter_number gd0_weight gd18_weight gd_of_birth pups_born_alive
    ##   <chr> <chr>              <dbl>       <dbl>       <int>           <int>
    ## 1 Low7  #102                22.6        43.3          20              11
    ## 2 Mod8  #5/93               NA          41.1          20              11
    ## 3 Mod7  #103                21.4        42.1          19               9
    ## # ... with 46 more rows, and 2 more variables: pups_dead_birth <int>,
    ## #   pups_survive <int>

``` r
litters_data_raw = read_csv("./data/FAS_litters.csv",
  col_types = "ccddiiii")
litters_data_clean_names = janitor::clean_names(litters_data_raw)
litters_data_selected_cols = select(litters_data_clean_names, -pups_survive)
litters_data_with_vars = mutate(litters_data_selected_cols, 
  wt_gain = gd18_weight - gd0_weight,
  group = tolower(group))
litters_data_with_vars
```

    ## # A tibble: 49 x 8
    ##   group litter_number gd0_weight gd18_weight gd_of_birth pups_born_alive
    ##   <chr> <chr>              <dbl>       <dbl>       <int>           <int>
    ## 1 con7  #85                 19.7        34.7          20               3
    ## 2 con7  #1/2/95/2           27          42            19               8
    ## 3 con7  #5/5/3/83/3-3       26          41.4          19               6
    ## # ... with 46 more rows, and 2 more variables: pups_dead_birth <int>,
    ## #   wt_gain <dbl>
…
litters_data_clean = 
  mutate(
    select(
      janitor::clean_names(
        read_csv("./data/FAS_litters.csv", col_types = "ccddiiii")
        ), 
    -pups_survive
    ),
  wt_gain = gd18_weight - gd0_weight,
  group = tolower(group)
  )
litters_data_clean
```

    ## # A tibble: 49 x 8
    ##   group litter_number gd0_weight gd18_weight gd_of_birth pups_born_alive
    ##   <chr> <chr>              <dbl>       <dbl>       <int>           <int>
    ## 1 con7  #85                 19.7        34.7          20               3
    ## 2 con7  #1/2/95/2           27          42            19               8
    ## 3 con7  #5/5/3/83/3-3       26          41.4          19               6
    ## # ... with 46 more rows, and 2 more variables: pups_dead_birth <int>,
    ## #   wt_gain <dbl>

``` r
litters_data = 
  read_csv("./data/FAS_litters.csv", col_types = "ccddiiii") %>%
  janitor::clean_names() %>%
  select(-pups_survive) %>%
  mutate(
    wt_gain = gd18_weight - gd0_weight,
    group = tolower(group)
  )
litters_data
```

    ## # A tibble: 49 x 8
    ##   group litter_number gd0_weight gd18_weight gd_of_birth pups_born_alive
    ##   <chr> <chr>              <dbl>       <dbl>       <int>           <int>
    ## 1 con7  #85                 19.7        34.7          20               3
    ## 2 con7  #1/2/95/2           27          42            19               8
    ## 3 con7  #5/5/3/83/3-3       26          41.4          19               6
    ## # ... with 46 more rows, and 2 more variables: pups_dead_birth <int>,
    ## #   wt_gain <dbl>
…
    ## 
    ## Call:
    ## lm(formula = gd18_weight ~ gd0_weight, data = .)
    ## 
    ## Coefficients:
    ## (Intercept)   gd0_weight  
    ##      15.342        1.084

``` r
pulse_data = haven::read_sas("./data/public_pulse_data.sas7bdat") %>%
  janitor::clean_names()
pulse_data
```

    ## # A tibble: 1,087 x 7
    ##      id   age sex   bdi_score_bl bdi_score_01m bdi_score_06m bdi_score_12m
    ##   <dbl> <dbl> <chr>        <dbl>         <dbl>         <dbl>         <dbl>
    ## 1 10003  48.0 male             7             1             2             0
    ## 2 10015  72.5 male             6            NA            NA            NA
    ## 3 10022  58.5 male            14             3             8            NA
    ## # ... with 1,084 more rows

``` r
pulse_tidy_data = gather(pulse_data, key = visit, value = bdi, bdi_score_bl:bdi_score_12m)
```

    ## Warning: attributes are not identical across measure variables;
    ## they will be dropped

``` r
pulse_tidy_data
```

    ## # A tibble: 4,348 x 5
    ##      id   age sex   visit          bdi
    ##   <dbl> <dbl> <chr> <chr>        <dbl>
    ## 1 10003  48.0 male  bdi_score_bl     7
    ## 2 10015  72.5 male  bdi_score_bl     6
    ## 3 10022  58.5 male  bdi_score_bl    14
    ## # ... with 4,345 more rows

``` r
separate(pulse_tidy_data, visit, into = c("remove_1", "remove_2", "visit"), sep = "_") %>%
  select(-remove_1, -remove_2) %>%
  mutate(visit = replace(visit, visit == "bl", "00m")) 
```

    ## # A tibble: 4,348 x 5
    ##      id   age sex   visit   bdi
    ##   <dbl> <dbl> <chr> <chr> <dbl>
    ## 1 10003  48.0 male  00m       7
    ## 2 10015  72.5 male  00m       6
    ## 3 10022  58.5 male  00m      14
    ## # ... with 4,345 more rows
…
    ## Warning: attributes are not identical across measure variables;
    ## they will be dropped

``` r
print(pulse_data, n = 12)
```

    ## # A tibble: 4,348 x 5
    ##       id visit   age sex     bdi
    ##    <dbl> <fct> <dbl> <chr> <dbl>
    ##  1 10003 00m    48.0 male      7
    ##  2 10003 01m    48.0 male      1
    ##  3 10003 06m    48.0 male      2
    ##  4 10003 12m    48.0 male      0
    ##  5 10015 00m    72.5 male      6
    ##  6 10015 01m    72.5 male     NA
    ##  7 10015 06m    72.5 male     NA
    ##  8 10015 12m    72.5 male     NA
    ##  9 10022 00m    58.5 male     14
    ## 10 10022 01m    58.5 male      3
    ## 11 10022 06m    58.5 male      8
    ## 12 10022 12m    58.5 male     NA
    ## # ... with 4,336 more rows

``` r
read_csv("./data/FAS_litters.csv", col_types = "ccddiiii") %>% 
  janitor::clean_names() %>%
separate(group, into = c("dose", "day"), 3) %>%
mutate(dose = tolower(dose),
         wt_gain = gd18_weight - gd0_weight) %>%
  arrange(litter_number)
```

    ## # A tibble: 49 x 10
    ##   dose  day   litter_number gd0_weight gd18_weight gd_of_birth
    ##   <chr> <chr> <chr>              <dbl>       <dbl>       <int>
    ## 1 con   7     #1/2/95/2             27          42          19
    ## 2 con   7     #1/5/3/83/3-~         NA          NA          20
    ## 3 con   8     #1/6/2/2/95-2         NA          NA          20
    ## # ... with 46 more rows, and 4 more variables: pups_born_alive <int>,
    ## #   pups_dead_birth <int>, pups_survive <int>, wt_gain <dbl>

``` r
litters_data
```

    ## # A tibble: 49 x 8
    ##   group litter_number gd0_weight gd18_weight gd_of_birth pups_born_alive
    ##   <chr> <chr>              <dbl>       <dbl>       <int>           <int>
    ## 1 con7  #85                 19.7        34.7          20               3
    ## 2 con7  #1/2/95/2           27          42            19               8
    ## 3 con7  #5/5/3/83/3-3       26          41.4          19               6
    ## # ... with 46 more rows, and 2 more variables: pups_dead_birth <int>,
    ## #   wt_gain <dbl>

``` r
litters_data %>% 
  select(litter_number, ends_with("weight")) %>% 
  gather(key = gd, value = weight, gd0_weight:gd18_weight) %>% 
  mutate(gd = recode(gd, "gd0_weight" = 0, "gd18_weight" = 18))
```

    ## # A tibble: 98 x 3
    ##   litter_number    gd weight
    ##   <chr>         <dbl>  <dbl>
    ## 1 #85               0   19.7
    ## 2 #1/2/95/2         0   27  
    ## 3 #5/5/3/83/3-3     0   26  
    ## # ... with 95 more rows
…
litter_data = read_csv("./data/FAS_litters.csv", col_types = "ccddiiii") %>%
  janitor::clean_names() %>%
  select(-pups_survive) %>%
  mutate(
    wt_gain = gd18_weight - gd0_weight,
    group = tolower(group))

FAS_data = left_join(pup_data, litter_data, by = "litter_number")
FAS_data
```

    ## # A tibble: 313 x 13
    ##   litter_number sex   pd_ears pd_eyes pd_pivot pd_walk group gd0_weight
    ##   <chr>         <chr>   <int>   <int>    <int>   <int> <chr>      <dbl>
    ## 1 #85           male        4      13        7      11 con7        19.7
    ## 2 #85           male        4      13        7      12 con7        19.7
    ## 3 #1/2/95/2     male        5      13        7       9 con7        27  
    ## # ... with 310 more rows, and 5 more variables: gd18_weight <dbl>,
    ## #   gd_of_birth <int>, pups_born_alive <int>, pups_dead_birth <int>,
    ## #   wt_gain <dbl>
